…
$$tf(\text{word}) = (\frac{n_{\text{word}}}{n_{\text{total words in document}}})$$
* **Inverse document frequency (idf)** weights the frequency of a word by how rarely it occurs in a set of documents, and increases the weight for words that are seldom seen in the set. You'll notice that since this takes the logarithm, an extremely common word would get a rating of zero.

$$idf(\text{word}) = {\ln{\left(\frac{n_{\text{documents}}}{n_{\text{documents containing term}}}\right)}}$$

These two concepts can be combined to calculate a weighted frequency measure for each word: the **term frequency inverse document frequency (tf-idf)**. You can think about this as the frequency of a term in a document weighted by how rarely it is used among a group of documents, with higher weights going to rarely used words, and lower weights to commonly-used words. 

$$tfidf(\text{word}) = tf(\text{word}) * idf(\text{word})$$


Computing this with the `bind_tf_idf` function from the tidytext package, we get a data table which shows the words which are associatd in particular with one meeting. 


{% highlight text %}
## # A tibble: 120,189 × 6
##    meeting     word     n           tf       idf       tf_idf
##     <fctr>    <chr> <int>        <dbl>     <dbl>        <dbl>
## 1     B.16   geeref   794 0.0015003099 2.7080502 0.0040629145
## 2     B.14    ugeap   587 0.0008643819 1.6094379 0.0013911690
## 3     B.11     lged   223 0.0004362046 2.7080502 0.0011812639
## 4     B.16    saïss   225 0.0004251508 2.7080502 0.0011513297
## 5     B.13 bandesal   248 0.0004181448 2.7080502 0.0011323571
## 6     B.10      tbd   450 0.0013617588 0.7621401 0.0010378509
## 7     B.15      cis   462 0.0006954741 1.3217558 0.0009192470
## 8     B.13      eba   399 0.0006727410 1.3217558 0.0008891994
## 9     B.11      waf   164 0.0003207962 2.7080502 0.0008687322
## 10    B.16     siea   167 0.0003155564 2.7080502 0.0008545425
## # ... with 120,179 more rows
…
