…
# Count co-occurences of the two separated words
bigram_counts <- bigrams_filtered %>% 
  count(word1, word2, sort = TRUE)

bigram_counts 
{% endhighlight %}



{% highlight text %}
## Source: local data frame [315,893 x 3]
## Groups: word1 [23,216]
## 
##       word1     word2     n
##       <chr>     <chr> <int>
## 1   climate    change  7277
## 2   climate      fund  6433
## 3     green   climate  6430
## 4   private    sector  5260
## 5   funding  proposal  4884
## 6   project programme  4029
## 7    agenda      item  3351
## 8      fund   funding  2969
## 9  proposal      page  2840
## 10  interim   trustee  2542
## # ... with 315,883 more rows
…
It looks like the most common bigram in the gcfboardr data set is (surprise surprise!) "climate change". Now that we've removed stop words, we can unite the word pairs back into a single column, using the `unite` function from the tidyr package:


{% highlight r %}
# Unite the counts into bigram terms
bigrams_united <- bigrams_filtered %>%
  unite(bigram, word1, word2, sep = " ") %>% 
  select(bigram, meeting, title)
bigrams_united
{% endhighlight %}



{% highlight text %}
## # A tibble: 1,276,503 × 3
##                  bigram meeting                                      title
## *                 <chr>  <fctr>                                     <fctr>
## 1      additional rules    B.01 Additional Rules of Procedure of the Board
## 2             board gcf    B.01 Additional Rules of Procedure of the Board
## 3        august meeting    B.01 Additional Rules of Procedure of the Board
## 4          board august    B.01 Additional Rules of Procedure of the Board
## 5         august geneva    B.01 Additional Rules of Procedure of the Board
## 6    geneva switzerland    B.01 Additional Rules of Procedure of the Board
## 7    switzerland agenda    B.01 Additional Rules of Procedure of the Board
## 8           agenda item    B.01 Additional Rules of Procedure of the Board
## 9              item gcf    B.01 Additional Rules of Procedure of the Board
## 10 recommended decision    B.01 Additional Rules of Procedure of the Board
## # ... with 1,276,493 more rows
…
# create a tidy df of words in each document
gcf_section_words <- gcfboard_docs %>%
  left_join(lookup) %>%
  select(-meeting, -title) %>% 
  unnest_tokens(word, text) %>%
  filter(!word %in% stop_words$word)
{% endhighlight %}

`pairwise_cor` checks how often a word appears in any single section of a corpus -- in this case, we're using documents to represent sections -- *with* other words, compared to how often it appears in any single section *without* those other words.


{% highlight text %}
## # A tibble: 1,328,234 × 3
##         item1      item2 correlation
##         <chr>      <chr>       <dbl>
## 1  immunities privileges   0.9816426
## 2  privileges immunities   0.9816426
## 3     society      civil   0.9609286
## 4       civil    society   0.9609286
## 5       shift   paradigm   0.9465226
## 6    paradigm      shift   0.9465226
## 7     learned    lessons   0.8952116
## 8     lessons    learned   0.8952116
## 9      sector    private   0.8855799
## 10    private     sector   0.8855799
## # ... with 1,328,224 more rows
…
