…
To get tidy data, all we need is the `unnest_tokens` function from the `tidytext` package.


{% highlight r %}
gcfboard_docs %>% 
  unnest_tokens(word, text) %>% 
  count(word, sort = TRUE) 
{% endhighlight %}



{% highlight text %}
## # A tibble: 44,122 × 2
##     word      n
##    <chr>  <int>
## 1    the 388953
## 2    and 213281
## 3     of 200375
## 4     to 144181
## 5     in  97765
## 6    for  72539
## 7      a  68431
## 8     on  40802
## 9     as  39289
## 10  that  39265
## # ... with 44,112 more rows
…
